requests>=2.22.0
Flask>=1.1.1
oauthlib>=3.1.0
Flask-Login>=0.4.1
Flask-Cors>=3.0.8
gunicorn>=19.9.0
newspaper3k>=0.2.8
NumPy>=1.17.2
SciPy>=1.3.1
joblib>=0.14.0
scikit-learn>=0.21.3
Matplotlib>=3.1.1
pandas>=0.25.1
seaborn>=0.9.0
pymongo>=3.9.0